^C:\USERS\VOLDEMAR\SOURCE\REPOS\CONSOLEAPPLICATION2\CONSOLEAPPLICATION2.CPP
C:\USERS\VOLDEMAR\SOURCE\REPOS\CONSOLEAPPLICATION2\DEBUG\VC142.PDB
C:\USERS\VOLDEMAR\SOURCE\REPOS\CONSOLEAPPLICATION2\DEBUG\VC142.IDB
C:\USERS\VOLDEMAR\SOURCE\REPOS\CONSOLEAPPLICATION2\DEBUG\CONSOLEAPPLICATION2.OBJ
